{
	"keys": [
		{
			"package": "app.example.client.ios.dev",
			"platform": "sandbox",
			"key": "-----BEGIN CERTIFICATE-----\n-----END CERTIFICATE-----\n-----BEGIN PRIVATE KEY-----\n-----END PRIVATE KEY-----\n"
		}
	]
}
